<?xml version="1.0" encoding="UTF-8"?>
<session version="1.0">
<refactoring comment="Delete resource &apos;Block Analysis&apos;" deleteContents="false" description="Delete resource &apos;Block Analysis&apos;" element1="/Block Analysis" flags="7" id="org.eclipse.ltk.core.refactoring.delete.resources" resources="1" stamp="1421437121289"/>
</session>