<?xml version="1.0" encoding="UTF-8"?>
<session version="1.0">
<refactoring comment="Rename compilation unit &apos;DirNode.java&apos; to &apos;GraphNode.java&apos;&#x0D;&#x0A;- Original project: &apos;PathFinding&apos;&#x0D;&#x0A;- Original element: &apos;DirNode.java&apos;&#x0D;&#x0A;- Renamed element: &apos;GraphNode.java&apos;" description="Rename compilation unit &apos;DirNode.java&apos;" flags="2" id="org.eclipse.jdt.ui.rename.compilationunit" input="/src&lt;{DirNode.java" name="GraphNode.java" references="false" stamp="1411834198049" version="1.0"/>
</session>